<?xml version="1.0" encoding="UTF-8"?>
<session version="1.0">
<refactoring comment="Delete resource &apos;FinalProject&apos;" deleteContents="false" description="Delete resource &apos;FinalProject&apos;" element1="/FinalProject" flags="7" id="org.eclipse.ltk.core.refactoring.delete.resources" resources="1" stamp="1402338893428"/>
</session>